25

123

2
1
-1
1

2
1
1
-1
1
-2

124

2
1
-1
2

2
1
1
-1
2
-2

8
-9
12
11
1
-8
-4
-3
-1
1
-7
9
11
7
10
6
13
1
11
12

3
2
-4
9
10
-1
15
11
-6
7

7
11
-6
14
2
11
10

3
7
1
3
-5
7
-7
1
5
-6

-3
9

1
11
5
13
8
12
-3
12
-5
5
1
2
-6
4
-2
-7

12
5
5
8
-5
7
1
-1
12
-8
-1
4
8
-2
12
5
15

14
15
5
-8
14
-6
14
10
12
2
-4
4
2
-2
2

2
9
13
9
1
5
6
10
-10
7
-7
2

12
6
9
-6
-1
11
4
11
1
9
5
-9
10
7
14
15
-4
5
-2

1
11
6
14
-3
-10
3
4
-10
13
-2
10
3
12

4
4
1
1
-1
-8
-3
10
13

-4
-2
11
12
-6
-6
15
-9
1
3
3

13
1
12
8
-4
5
8
-4

7
12
-2
15
-1
12
3
1
4
8
6
-7
6
15
2
13
4
3
-10
-3

4
10
2
11
12
1
14
-4
14
2
-10
6

4
-7
2
-5
14
2
6
-8
13
4
12
-3
15

10
9
9
-9
13
13
5
15
-5
8
-10
9
5
3
6
6
3

10
10
11
13
-9
-9
6
11
13
9
2
-8
-1
1
